com\bendeliani\springdemo\DAO\StudentDAOImpl.class
com\bendeliani\springdemo\service\StudentServiceImpl.class
com\bendeliani\springdemo\entity\Student.class
com\bendeliani\springdemo\controller\StudentController.class
com\bendeliani\springdemo\service\StudentService.class
com\bendeliani\springdemo\DAO\StudentDAO.class
